"2017-01-30 12:55:38",98.96
"2017-01-30 12:55:39",202.88
"2017-01-30 12:55:41",268.0
"2017-01-30 12:55:42",293.92
"2017-01-30 12:55:55",308.0
"2017-01-30 12:55:56",296.0
"2017-01-30 12:56:00",309.92
"2017-01-30 12:56:01",320.96
"2017-01-30 12:56:02",334.72
"2017-01-30 12:56:24",320.96
"2017-01-30 13:03:35",331.84
"2017-01-30 13:15:15",320.96
"2017-01-30 13:19:26",309.92
"2017-01-30 13:28:27",320.96
"2017-01-30 13:29:42",331.84
"2017-01-30 13:30:46",342.72
"2017-01-30 13:31:45",353.92
"2017-01-30 13:32:54",364.8
"2017-01-30 13:33:31",376.96
"2017-01-30 13:33:35",234.88
"2017-01-30 13:33:36",192.0
"2017-01-30 13:33:38",172.96
"2017-01-30 13:33:39",160.96
"2017-01-30 13:33:40",150.0
"2017-01-30 13:33:41",136.96
"2017-01-30 13:33:42",126.0
"2017-01-30 13:33:43",112.96
"2017-01-30 13:33:44",102.0
"2017-01-30 13:33:45",90.96
"2017-01-30 13:33:46",80.0
"2017-01-30 13:33:47",69.0
"2017-01-30 13:33:48",58.0
"2017-01-30 13:33:50",40.0
"2017-01-30 13:33:52",23.0
"2017-01-30 13:33:54",11.0
"2017-01-30 13:50:16",24.0
"2017-01-30 13:50:17",136.96
"2017-01-30 13:50:18",274.88
"2017-01-30 13:50:19",288.0
"2017-01-30 13:50:34",300.0
"2017-01-30 13:50:35",310.88
"2017-01-30 13:50:37",324.96
"2017-01-30 13:51:00",308.0
"2017-01-30 13:51:20",177.92
"2017-01-30 13:51:22",124.96
"2017-01-30 13:51:30",110.0
"2017-01-30 13:51:32",94.0
"2017-01-30 13:51:34",78.0
"2017-01-30 13:51:36",60.0
"2017-01-30 13:51:38",44.0
"2017-01-30 13:51:40",30.0
"2017-01-30 13:51:42",18.0
"2017-01-30 13:51:45",6.0
"2017-01-31 12:51:10",197.92
"2017-01-31 12:51:15",278.88
"2017-01-31 12:51:16",354.88
"2017-01-31 12:51:23",344.0
"2017-01-31 12:51:27",355.84
"2017-01-31 12:51:29",371.84
"2017-01-31 12:51:31",384.96
"2017-01-31 12:51:33",402.88
"2017-01-31 12:51:34",413.76
"2017-01-31 12:51:55",401.92
"2017-01-31 12:53:48",412.8
"2017-01-31 12:56:13",424.0
"2017-01-31 13:01:49",435.84
"2017-01-31 13:08:51",424.96
"2017-01-31 13:10:50",413.76
"2017-01-31 13:12:20",402.88
"2017-01-31 13:14:05",392.0
"2017-01-31 13:16:55",380.8
"2017-01-31 13:21:57",368.96
"2017-01-31 13:23:24",340.8
"2017-01-31 13:23:25",200.0
"2017-01-31 13:23:27",180.96
"2017-01-31 13:23:28",169.92
"2017-01-31 13:23:29",158.96
"2017-01-31 13:23:30",146.96
"2017-01-31 13:23:31",130.96
"2017-01-31 13:23:32",118.0
"2017-01-31 13:23:33",106.96
"2017-01-31 13:23:34",94.0
"2017-01-31 13:23:35",82.96
"2017-01-31 13:23:36",71.0
"2017-01-31 13:23:38",51.0
"2017-01-31 13:23:40",33.0
"2017-01-31 13:23:42",20.0
"2017-01-31 13:23:45",6.0
"2017-01-31 13:47:06",130.96
"2017-01-31 13:47:07",237.92
"2017-01-31 13:47:08",349.76
"2017-01-31 13:47:21",368.0
"2017-01-31 13:47:23",380.8
"2017-01-31 13:47:25",397.76
"2017-01-31 13:47:27",413.76
"2017-01-31 13:47:44",400.0
"2017-01-31 13:48:03",368.96
"2017-01-31 13:48:05",330.88
"2017-01-31 13:48:07",317.92
"2017-01-31 13:48:08",197.92
"2017-01-31 13:48:09",184.96
"2017-01-31 13:48:11",164.96
"2017-01-31 13:48:12",150.0
"2017-01-31 13:48:13",136.0
"2017-01-31 13:48:14",120.96
"2017-01-31 13:48:15",106.0
"2017-01-31 13:48:16",92.0
"2017-01-31 13:48:17",79.0
"2017-01-31 13:48:18",66.0
"2017-01-31 13:48:19",54.0
"2017-01-31 13:48:20",43.0
"2017-01-31 13:48:22",26.0
"2017-01-31 13:48:24",14.0
"2017-01-31 13:58:10",3.0
"2017-02-01 10:38:01",14.0
"2017-02-01 11:40:49",25.0
"2017-02-01 12:51:05",221.92
"2017-02-01 12:51:06",416.96
"2017-02-01 12:51:07",640.96
"2017-02-01 12:51:09",616.96
"2017-02-01 12:51:12",604.8
"2017-02-01 12:51:15",592.96
"2017-02-01 12:51:16",624.0
"2017-02-01 12:51:17",636.8
"2017-02-01 12:51:20",658.56
"2017-02-01 12:51:22",677.76
"2017-02-01 12:51:23",691.84
"2017-02-01 12:51:24",709.76
"2017-02-01 12:51:25",727.68
"2017-02-01 12:51:38",711.68
"2017-02-01 12:51:41",722.56
"2017-02-01 12:51:54",710.4
"2017-02-01 12:54:08",699.52
"2017-02-01 12:55:10",688.64
"2017-02-01 12:57:12",677.76
"2017-02-01 12:58:09",666.88
"2017-02-01 12:59:02",656.0
"2017-02-01 12:59:57",644.8
"2017-02-01 13:01:04",629.76
"2017-02-01 13:01:06",616.96
"2017-02-01 13:01:08",603.84
"2017-02-01 13:01:10",592.0
"2017-02-01 13:01:14",579.84
"2017-02-01 13:01:30",590.72
"2017-02-01 13:02:49",579.84
"2017-02-01 13:03:01",568.96
"2017-02-01 13:03:11",580.8
"2017-02-01 13:03:18",592.0
"2017-02-01 13:03:25",603.84
"2017-02-01 13:03:31",614.72
"2017-02-01 13:03:41",625.92
"2017-02-01 13:04:10",614.72
"2017-02-01 13:04:23",603.84
"2017-02-01 13:07:58",592.96
"2017-02-01 13:08:13",581.76
"2017-02-01 13:08:52",570.88
"2017-02-01 13:09:23",560.0
"2017-02-01 13:10:09",570.88
"2017-02-01 13:13:14",560.0
"2017-02-01 13:13:51",548.8
"2017-02-01 13:16:11",537.92
"2017-02-01 13:18:51",526.72
"2017-02-01 13:19:47",537.92
"2017-02-01 13:27:39",526.72
"2017-02-01 13:29:11",515.84
"2017-02-01 13:31:16",504.96
"2017-02-01 13:31:37",395.84
"2017-02-01 13:31:38",326.88
"2017-02-01 13:31:40",304.96
"2017-02-01 13:31:41",288.96
"2017-02-01 13:31:42",270.88
"2017-02-01 13:31:43",252.0
"2017-02-01 13:31:44",230.88
"2017-02-01 13:31:45",206.88
"2017-02-01 13:31:46",188.0
"2017-02-01 13:31:47",166.88
"2017-02-01 13:31:48",148.0
"2017-02-01 13:31:49",130.0
"2017-02-01 13:31:50",112.0
"2017-02-01 13:31:51",94.0
"2017-02-01 13:31:52",79.0
"2017-02-01 13:31:53",65.0
"2017-02-01 13:31:54",50.0
"2017-02-01 13:31:55",39.0
"2017-02-01 13:31:57",20.0
"2017-02-01 13:48:02",9.0
"2017-02-01 13:55:20",134.96
"2017-02-01 13:55:21",208.96
"2017-02-01 13:55:24",360.0
"2017-02-01 13:55:25",408.0
"2017-02-01 13:55:27",395.84
"2017-02-01 13:55:33",408.96
"2017-02-01 13:55:36",420.8
"2017-02-01 13:55:39",435.84
"2017-02-01 13:55:41",450.88
"2017-02-01 13:55:42",461.76
"2017-02-01 13:56:02",446.72
"2017-02-01 13:56:03",459.84
"2017-02-01 13:56:14",376.96
"2017-02-01 13:56:15",274.88
"2017-02-01 13:56:17",261.92
"2017-02-01 13:56:19",240.96
"2017-02-01 13:56:20",222.88
"2017-02-01 13:56:21",204.96
"2017-02-01 13:56:22",186.88
"2017-02-01 13:56:23",168.0
"2017-02-01 13:56:24",148.0
"2017-02-01 13:56:25",128.0
"2017-02-01 13:56:26",108.96
"2017-02-01 13:56:27",90.96
"2017-02-01 13:56:28",74.0
"2017-02-01 13:56:29",59.0
"2017-02-01 13:56:30",45.0
"2017-02-01 13:56:31",34.0
"2017-02-01 13:56:33",16.0
"2017-02-01 13:56:35",5.0
"2017-02-02 09:05:44",16.0
"2017-02-02 09:07:16",27.0
"2017-02-02 09:11:20",14.0
"2017-02-02 09:11:45",26.0
"2017-02-02 09:16:27",15.0
"2017-02-02 09:17:31",26.0
"2017-02-02 09:19:36",14.0
"2017-02-02 09:20:02",25.0
"2017-02-02 09:20:18",13.0
"2017-02-02 09:20:47",24.0
"2017-02-02 09:21:01",11.0
"2017-02-02 09:21:33",22.0
"2017-02-02 09:22:03",10.0
"2017-02-02 09:24:55",22.0
"2017-02-02 09:30:08",9.0
"2017-02-02 09:30:22",20.0
"2017-02-02 09:31:51",31.0
"2017-02-02 10:37:17",18.0
"2017-02-02 10:37:21",7.0
"2017-02-02 10:37:35",21.0
"2017-02-02 10:38:59",32.0
"2017-02-02 10:45:25",20.0
"2017-02-02 10:45:29",31.0
"2017-02-02 10:45:53",16.0
"2017-02-02 10:46:11",30.0
"2017-02-02 11:07:49",11.0
"2017-02-02 11:09:09",26.0
"2017-02-02 11:09:21",38.0
"2017-02-02 11:15:24",26.0
"2017-02-02 11:15:26",13.0
"2017-02-02 11:15:45",25.0
"2017-02-02 11:15:49",12.0
"2017-02-02 11:16:16",24.0
"2017-02-02 11:16:27",35.0
"2017-02-02 11:18:56",23.0
"2017-02-02 11:19:08",35.0
"2017-02-02 11:21:05",24.0
"2017-02-02 11:21:17",36.0
"2017-02-02 11:25:47",24.0
"2017-02-02 11:25:50",13.0
"2017-02-02 11:26:00",24.0
"2017-02-02 11:26:09",35.0
"2017-02-02 11:38:55",21.0
"2017-02-02 11:39:08",32.0
"2017-02-02 11:48:38",21.0
"2017-02-02 11:58:04",10.0
"2017-02-02 12:17:16",21.0
"2017-02-02 12:21:44",10.0
"2017-02-02 12:28:43",21.0
"2017-02-02 12:43:45",10.0
"2017-02-02 12:51:45",86.0
"2017-02-02 12:51:46",169.92
"2017-02-02 12:51:47",464.0
"2017-02-02 12:51:48",475.84
"2017-02-02 12:51:52",462.72
"2017-02-02 12:52:00",492.8
"2017-02-02 12:52:01",481.92
"2017-02-02 12:52:02",512.96
"2017-02-02 12:52:03",533.76
"2017-02-02 12:52:04",552.0
"2017-02-02 12:52:05",569.92
"2017-02-02 12:52:21",556.8
"2017-02-02 12:52:23",536.0
"2017-02-02 12:52:24",568.0
"2017-02-02 12:52:40",556.8
"2017-02-02 12:52:43",544.96
"2017-02-02 12:57:40",533.76
"2017-02-02 13:00:03",544.96
"2017-02-02 13:01:15",555.84
"2017-02-02 13:04:13",566.72
"2017-02-02 13:05:01",577.92
"2017-02-02 13:05:53",588.8
"2017-02-02 13:06:32",600.0
"2017-02-02 13:07:03",610.88
"2017-02-02 13:08:47",621.76
"2017-02-02 13:09:08",632.96
"2017-02-02 13:10:12",621.76
"2017-02-02 13:10:21",610.88
"2017-02-02 13:10:32",600.0
"2017-02-02 13:10:43",588.8
"2017-02-02 13:11:01",577.92
"2017-02-02 13:11:35",588.8
"2017-02-02 13:11:48",576.96
"2017-02-02 13:11:49",565.76
"2017-02-02 13:11:50",552.96
"2017-02-02 13:11:52",533.76
"2017-02-02 13:12:04",552.96
"2017-02-02 13:12:05",565.76
"2017-02-02 13:12:06",576.96
"2017-02-02 13:12:08",588.8
"2017-02-02 13:12:11",568.96
"2017-02-02 13:12:13",556.8
"2017-02-02 13:12:15",568.96
"2017-02-02 13:12:17",584.96
"2017-02-02 13:12:19",596.8
"2017-02-02 13:12:31",579.84
"2017-02-02 13:12:36",592.0
"2017-02-02 13:12:47",604.8
"2017-02-02 13:12:53",590.72
"2017-02-02 13:12:54",574.72
"2017-02-02 13:12:55",560.96
"2017-02-02 13:12:56",548.8
"2017-02-02 13:12:59",536.0
"2017-02-02 13:13:07",547.84
"2017-02-02 13:13:10",560.96
"2017-02-02 13:13:14",571.84
"2017-02-02 13:13:16",585.92
"2017-02-02 13:13:18",600.96
"2017-02-02 13:13:28",611.84
"2017-02-02 13:13:45",622.72
"2017-02-02 13:14:07",633.92
"2017-02-02 13:14:33",644.8
"2017-02-02 13:15:05",633.92
"2017-02-02 13:15:07",620.8
"2017-02-02 13:15:10",636.8
"2017-02-02 13:15:14",648.0
"2017-02-02 13:16:48",635.84
"2017-02-02 13:17:57",646.72
"2017-02-02 13:18:16",657.92
"2017-02-02 13:18:44",646.72
"2017-02-02 13:18:46",619.84
"2017-02-02 13:18:47",600.0
"2017-02-02 13:18:48",574.72
"2017-02-02 13:18:49",552.96
"2017-02-02 13:18:50",539.84
"2017-02-02 13:18:53",557.76
"2017-02-02 13:18:54",570.88
"2017-02-02 13:18:55",584.96
"2017-02-02 13:18:57",595.84
"2017-02-02 13:19:00",582.72
"2017-02-02 13:19:02",568.96
"2017-02-02 13:19:03",557.76
"2017-02-02 13:19:04",539.84
"2017-02-02 13:19:05",528.0
"2017-02-02 13:19:07",514.88
"2017-02-02 13:19:11",504.0
"2017-02-02 13:20:04",514.88
"2017-02-02 13:20:10",409.92
"2017-02-02 13:20:11",336.0
"2017-02-02 13:20:13",308.96
"2017-02-02 13:20:14",292.96
"2017-02-02 13:20:15",272.96
"2017-02-02 13:20:16",248.0
"2017-02-02 13:20:17",225.92
"2017-02-02 13:20:18",206.88
"2017-02-02 13:20:19",185.92
"2017-02-02 13:20:20",162.96
"2017-02-02 13:20:21",142.96
"2017-02-02 13:20:22",124.96
"2017-02-02 13:20:23",108.0
"2017-02-02 13:20:24",90.96
"2017-02-02 13:20:25",76.0
"2017-02-02 13:20:26",63.0
"2017-02-02 13:20:27",50.0
"2017-02-02 13:20:28",38.0
"2017-02-02 13:20:30",20.0
"2017-02-02 13:20:45",9.0
"2017-02-02 13:21:00",20.0
"2017-02-02 13:22:39",9.0
"2017-02-02 13:25:39",20.0
"2017-02-02 13:26:05",9.0
"2017-02-02 13:29:57",20.0
"2017-02-02 13:30:05",9.0
"2017-02-02 13:30:40",20.0
"2017-02-02 13:30:50",9.0
"2017-02-02 13:31:07",20.0
"2017-02-02 13:31:52",9.0
"2017-02-02 13:47:49",42.0
"2017-02-02 13:47:50",210.88
"2017-02-02 13:47:51",389.76
"2017-02-02 13:47:52",436.8
"2017-02-02 13:47:55",424.96
"2017-02-02 13:48:02",436.8
"2017-02-02 13:48:04",448.0
"2017-02-02 13:48:06",464.96
"2017-02-02 13:48:08",484.8
"2017-02-02 13:48:09",498.88
"2017-02-02 13:48:10",512.0
"2017-02-02 13:48:17",488.96
"2017-02-02 13:48:18",512.96
"2017-02-02 13:48:19",482.88
"2017-02-02 13:48:20",504.0
"2017-02-02 13:48:22",520.0
"2017-02-02 13:48:31",480.0
"2017-02-02 13:48:32",501.76
"2017-02-02 13:48:33",542.72
"2017-02-02 13:48:34",556.8
"2017-02-02 13:48:35",572.8
"2017-02-02 13:48:36",584.96
"2017-02-02 13:48:39",612.8
"2017-02-02 13:48:44",594.88
"2017-02-02 13:48:46",572.8
"2017-02-02 13:48:48",550.72
"2017-02-02 13:48:50",538.88
"2017-02-02 13:48:52",508.8
"2017-02-02 13:48:53",410.88
"2017-02-02 13:48:54",334.72
"2017-02-02 13:48:55",314.88
"2017-02-02 13:48:57",286.88
"2017-02-02 13:48:58",265.92
"2017-02-02 13:48:59",242.88
"2017-02-02 13:49:00",220.96
"2017-02-02 13:49:01",197.92
"2017-02-02 13:49:02",173.92
"2017-02-02 13:49:03",150.96
"2017-02-02 13:49:04",130.0
"2017-02-02 13:49:05",108.96
"2017-02-02 13:49:06",90.0
"2017-02-02 13:49:07",72.0
"2017-02-02 13:49:08",57.0
"2017-02-02 13:49:09",43.0
"2017-02-02 13:49:10",32.0
"2017-02-02 13:49:12",15.0
"2017-02-02 14:46:07",4.0
"2017-02-03 09:04:07",15.0
"2017-02-03 09:07:02",26.0
"2017-02-03 10:40:35",15.0
"2017-02-03 10:43:20",26.0
"2017-02-03 11:03:03",37.0
"2017-02-03 11:17:03",26.0
"2017-02-03 11:24:23",15.0
"2017-02-03 11:35:27",26.0
"2017-02-03 11:47:16",15.0
"2017-02-03 12:24:17",184.96
"2017-02-03 12:24:18",212.96
"2017-02-03 12:26:19",156.0
"2017-02-03 12:26:20",13.0
"2017-02-03 14:15:17",2.0
"2017-02-06 12:52:47",201.92
"2017-02-06 12:52:48",241.92
"2017-02-06 12:52:49",360.0
"2017-02-06 12:52:56",346.88
"2017-02-06 12:52:57",357.76
"2017-02-06 12:53:00",369.92
"2017-02-06 12:53:02",381.76
"2017-02-06 12:53:05",398.72
"2017-02-06 12:53:07",412.8
"2017-02-06 12:53:10",398.72
"2017-02-06 12:53:12",418.88
"2017-02-06 12:53:18",429.76
"2017-02-06 12:53:30",413.76
"2017-02-06 12:53:49",402.88
"2017-02-06 12:55:14",392.0
"2017-02-06 12:57:26",380.8
"2017-02-06 13:05:25",392.0
"2017-02-06 13:07:56",402.88
"2017-02-06 13:10:06",392.0
"2017-02-06 13:11:55",379.84
"2017-02-06 13:13:56",368.96
"2017-02-06 13:17:18",357.76
"2017-02-06 13:21:30",346.88
"2017-02-06 13:23:11",336.0
"2017-02-06 13:23:35",272.0
"2017-02-06 13:23:36",158.0
"2017-02-06 13:23:38",146.0
"2017-02-06 13:23:39",132.96
"2017-02-06 13:23:41",116.0
"2017-02-06 13:23:43",98.0
"2017-02-06 13:23:45",78.0
"2017-02-06 13:23:47",60.0
"2017-02-06 13:23:49",42.0
"2017-02-06 13:23:51",27.0
"2017-02-06 13:23:53",15.0
"2017-02-06 13:23:57",4.0
"2017-02-06 13:52:00",164.0
"2017-02-06 13:52:01",229.92
"2017-02-06 13:52:02",285.92
"2017-02-06 13:52:17",297.92
"2017-02-06 13:52:20",312.96
"2017-02-06 13:53:08",152.96
"2017-02-06 13:53:09",112.96
"2017-02-06 13:53:13",100.0
"2017-02-06 13:53:15",84.0
"2017-02-06 13:53:17",68.0
"2017-02-06 13:53:19",51.0
"2017-02-06 13:53:21",36.0
"2017-02-06 13:53:23",22.0
"2017-02-06 13:53:26",9.0
"2017-02-07 12:54:35",100.96
"2017-02-07 12:54:36",222.88
"2017-02-07 12:54:37",357.76
"2017-02-07 12:54:38",392.0
"2017-02-07 12:54:43",370.88
"2017-02-07 12:54:44",358.72
"2017-02-07 12:54:45",376.0
"2017-02-07 12:54:48",386.88
"2017-02-07 12:54:49",397.76
"2017-02-07 12:54:51",410.88
"2017-02-07 12:54:53",426.88
"2017-02-07 12:54:55",448.0
"2017-02-07 12:54:57",460.8
"2017-02-07 12:55:09",448.96
"2017-02-07 12:57:04",437.76
"2017-02-07 13:01:43",425.92
"2017-02-07 13:03:06",414.72
"2017-02-07 13:04:47",403.84
"2017-02-07 13:06:42",392.96
"2017-02-07 13:08:25",381.76
"2017-02-07 13:10:11",370.88
"2017-02-07 13:12:05",360.0
"2017-02-07 13:14:12",348.8
"2017-02-07 13:19:37",337.92
"2017-02-07 13:21:17",326.88
"2017-02-07 13:21:18",165.92
"2017-02-07 13:21:19",154.96
"2017-02-07 13:21:21",138.0
"2017-02-07 13:21:23",116.96
"2017-02-07 13:21:24",106.0
"2017-02-07 13:21:26",86.96
"2017-02-07 13:21:27",76.0
"2017-02-07 13:21:29",58.0
"2017-02-07 13:21:31",40.0
"2017-02-07 13:21:33",27.0
"2017-02-07 13:21:35",16.0
"2017-02-07 13:21:38",5.0
"2017-02-07 13:46:48",28.0
"2017-02-07 13:46:49",84.96
"2017-02-07 13:46:55",112.96
"2017-02-07 13:46:56",246.88
"2017-02-07 13:46:57",336.96
"2017-02-07 13:47:09",348.8
"2017-02-07 13:47:12",364.8
"2017-02-07 13:47:14",380.8
"2017-02-07 13:47:16",393.92
"2017-02-07 13:47:57",365.76
"2017-02-07 13:48:00",378.88
"2017-02-07 13:48:08",228.96
"2017-02-07 13:48:09",184.96
"2017-02-07 13:48:11",168.96
"2017-02-07 13:48:13",150.0
"2017-02-07 13:48:14",138.96
"2017-02-07 13:48:15",126.0
"2017-02-07 13:48:16",114.96
"2017-02-07 13:48:18",92.96
"2017-02-07 13:48:19",81.0
"2017-02-07 13:48:20",68.0
"2017-02-07 13:48:21",57.0
"2017-02-07 13:48:23",37.0
"2017-02-07 13:48:25",21.0
"2017-02-07 13:48:28",6.0
"2017-02-08 12:53:59",46.0
"2017-02-08 12:54:00",206.88
"2017-02-08 12:54:01",274.88
"2017-02-08 12:54:02",337.92
"2017-02-08 12:54:08",322.88
"2017-02-08 12:54:09",333.76
"2017-02-08 12:54:14",348.8
"2017-02-08 12:54:16",360.0
"2017-02-08 12:54:18",371.84
"2017-02-08 12:54:20",386.88
"2017-02-08 12:54:52",372.8
"2017-02-08 12:54:54",384.0
"2017-02-08 12:55:06",370.88
"2017-02-08 12:58:16",360.0
"2017-02-08 13:00:56",348.8
"2017-02-08 13:18:39",320.0
"2017-02-08 13:18:40",170.88
"2017-02-08 13:18:42",158.0
"2017-02-08 13:18:44",140.96
"2017-02-08 13:18:45",128.0
"2017-02-08 13:18:46",116.96
"2017-02-08 13:18:48",96.96
"2017-02-08 13:18:49",86.0
"2017-02-08 13:18:51",67.0
"2017-02-08 13:18:53",48.0
"2017-02-08 13:18:55",32.0
"2017-02-08 13:18:57",19.0
"2017-02-08 13:19:00",6.0
"2017-02-08 13:50:08",94.0
"2017-02-08 13:50:09",214.88
"2017-02-08 13:50:10",266.88
"2017-02-08 13:50:25",278.88
"2017-02-08 13:50:29",289.92
"2017-02-08 13:51:21",222.88
"2017-02-08 13:51:22",94.0
"2017-02-08 13:51:26",78.0
"2017-02-08 13:51:28",64.0
"2017-02-08 13:51:30",52.0
"2017-02-08 13:51:32",39.0
"2017-02-08 13:51:35",27.0
"2017-02-08 13:51:38",13.0
"2017-02-08 13:51:42",2.0
"2017-02-09 12:54:01",201.92
"2017-02-09 12:54:02",261.92
"2017-02-09 12:54:03",312.96
"2017-02-09 12:54:08",300.96
"2017-02-09 12:54:12",313.92
"2017-02-09 12:54:17",324.96
"2017-02-09 12:54:20",344.96
"2017-02-09 12:54:22",356.8
"2017-02-09 12:54:35",336.96
"2017-02-09 12:54:36",352.0
"2017-02-09 12:54:49",340.8
"2017-02-09 13:07:36",352.0
"2017-02-09 13:26:23",316.96
"2017-02-09 13:26:24",176.0
"2017-02-09 13:26:26",158.96
"2017-02-09 13:26:27",146.96
"2017-02-09 13:26:28",136.0
"2017-02-09 13:26:29",124.0
"2017-02-09 13:26:31",104.0
"2017-02-09 13:26:32",92.96
"2017-02-09 13:26:33",82.0
"2017-02-09 13:26:35",62.0
"2017-02-09 13:26:37",43.0
"2017-02-09 13:26:39",29.0
"2017-02-09 13:26:41",16.0
"2017-02-09 13:26:44",5.0
"2017-02-09 13:47:12",82.0
"2017-02-09 13:47:13",220.96
"2017-02-09 13:47:14",305.92
"2017-02-09 13:47:27",317.92
"2017-02-09 13:47:30",330.88
"2017-02-09 13:47:33",348.8
"2017-02-09 13:47:34",337.92
"2017-02-09 13:47:35",352.0
"2017-02-09 13:47:53",340.8
"2017-02-09 13:48:07",177.92
"2017-02-09 13:48:08",142.0
"2017-02-09 13:48:10",128.96
"2017-02-09 13:48:12",112.0
"2017-02-09 13:48:13",100.96
"2017-02-09 13:48:15",80.0
"2017-02-09 13:48:17",60.0
"2017-02-09 13:48:19",41.0
"2017-02-09 13:48:21",27.0
"2017-02-09 13:48:23",15.0
"2017-02-09 13:48:26",4.0
"2017-02-10 09:11:39",15.0
"2017-02-10 10:39:31",26.0
"2017-02-10 10:43:51",15.0
"2017-02-10 10:44:38",26.0
"2017-02-10 10:50:59",37.0
"2017-02-10 10:58:10",26.0
"2017-02-10 11:00:01",37.0
"2017-02-10 11:01:21",26.0
"2017-02-10 11:03:23",37.0
"2017-02-10 11:10:40",26.0
"2017-02-10 11:11:12",15.0
"2017-02-10 11:35:54",26.0
"2017-02-10 11:37:26",37.0
"2017-02-10 11:38:32",26.0
"2017-02-10 11:41:36",37.0
"2017-02-10 11:41:53",48.0
"2017-02-10 11:42:58",34.0
"2017-02-10 11:44:03",23.0
"2017-02-10 11:46:28",34.0
"2017-02-10 11:48:02",23.0
"2017-02-10 11:50:56",12.0
"2017-02-10 11:59:28",23.0
"2017-02-10 12:00:51",12.0
"2017-02-10 12:27:46",23.0
"2017-02-10 12:29:12",90.0
"2017-02-10 12:29:14",224.96
"2017-02-10 12:29:15",499.84
"2017-02-10 12:29:16",586.88
"2017-02-10 12:29:22",573.76
"2017-02-10 12:29:26",585.92
"2017-02-10 12:29:29",603.84
"2017-02-10 12:29:30",620.8
"2017-02-10 12:29:32",632.96
"2017-02-10 12:29:33",645.76
"2017-02-10 12:29:34",673.92
"2017-02-10 12:29:35",689.92
"2017-02-10 12:29:38",678.4
"2017-02-10 12:29:39",632.0
"2017-02-10 12:29:40",680.96
"2017-02-10 12:29:43",663.68
"2017-02-10 12:29:44",683.52
"2017-02-10 12:29:47",669.44
"2017-02-10 12:29:50",658.56
"2017-02-10 12:29:53",675.84
"2017-02-10 12:29:59",648.96
"2017-02-10 12:30:02",668.8
"2017-02-10 12:30:30",622.72
"2017-02-10 12:30:31",499.84
"2017-02-10 12:30:32",486.72
"2017-02-10 12:30:33",458.88
"2017-02-10 12:30:34",427.84
"2017-02-10 12:30:35",401.92
"2017-02-10 12:30:36",378.88
"2017-02-10 12:30:37",355.84
"2017-02-10 12:30:38",328.0
"2017-02-10 12:30:39",294.88
"2017-02-10 12:30:40",260.0
"2017-02-10 12:30:41",225.92
"2017-02-10 12:30:42",194.88
"2017-02-10 12:30:43",164.0
"2017-02-10 12:30:44",134.96
"2017-02-10 12:30:45",108.96
"2017-02-10 12:30:46",86.96
"2017-02-10 12:30:47",66.0
"2017-02-10 12:30:48",50.0
"2017-02-10 12:30:49",36.0
"2017-02-10 12:30:50",25.0
"2017-02-10 12:59:47",14.0
"2017-02-10 15:24:39",3.0
"2017-02-13 09:21:02",14.0
"2017-02-13 09:36:35",25.0
"2017-02-13 09:44:42",36.0
"2017-02-13 09:50:40",47.0
"2017-02-13 09:53:48",58.0
"2017-02-13 09:58:15",47.0
"2017-02-13 10:08:35",36.0
"2017-02-13 10:10:13",25.0
"2017-02-13 10:25:10",36.0
"2017-02-13 10:25:38",47.0
"2017-02-13 10:27:59",36.0
"2017-02-13 10:29:44",25.0
"2017-02-13 10:30:58",36.0
"2017-02-13 10:36:21",47.0
"2017-02-13 10:38:41",58.0
"2017-02-13 11:01:18",47.0
"2017-02-13 11:03:16",36.0
"2017-02-13 11:03:38",25.0
"2017-02-13 11:05:16",36.0
"2017-02-13 11:06:18",47.0
"2017-02-13 11:11:28",36.0
"2017-02-13 11:12:18",25.0
"2017-02-13 11:12:49",36.0
"2017-02-13 11:13:17",47.0
"2017-02-13 11:14:16",36.0
"2017-02-13 11:14:35",25.0
"2017-02-13 11:16:04",36.0
"2017-02-13 11:17:36",47.0
"2017-02-13 11:18:13",36.0
"2017-02-13 11:19:10",47.0
"2017-02-13 11:20:29",36.0
"2017-02-13 11:20:53",25.0
"2017-02-13 11:21:28",36.0
"2017-02-13 11:21:41",47.0
"2017-02-13 11:26:56",58.0
"2017-02-13 11:28:10",47.0
"2017-02-13 11:28:23",36.0
"2017-02-13 11:28:40",25.0
"2017-02-13 11:30:23",36.0
"2017-02-13 11:30:34",47.0
"2017-02-13 11:50:05",36.0
"2017-02-13 11:55:37",25.0
"2017-02-13 12:07:38",36.0
"2017-02-13 12:08:43",25.0
"2017-02-13 12:14:06",14.0
"2017-02-13 13:21:19",201.92
"2017-02-13 13:21:20",363.84
"2017-02-13 13:21:21",514.88
"2017-02-13 13:21:26",501.76
"2017-02-13 13:21:32",520.0
"2017-02-13 13:21:33",501.76
"2017-02-13 13:21:34",542.72
"2017-02-13 13:21:35",563.84
"2017-02-13 13:21:36",576.96
"2017-02-13 13:21:37",592.0
"2017-02-13 13:21:38",608.96
"2017-02-13 13:21:39",624.96
"2017-02-13 13:21:43",635.84
"2017-02-13 13:22:03",610.88
"2017-02-13 13:22:05",624.0
"2017-02-13 13:22:15",612.8
"2017-02-13 13:26:10",624.0
"2017-02-13 13:26:56",634.88
"2017-02-13 13:27:19",645.76
"2017-02-13 13:27:32",656.64
"2017-02-13 13:27:56",667.52
"2017-02-13 13:28:17",656.64
"2017-02-13 13:28:49",645.76
"2017-02-13 13:30:47",656.64
"2017-02-13 13:30:57",667.52
"2017-02-13 13:31:06",678.4
"2017-02-13 13:31:13",690.56
"2017-02-13 13:31:19",701.44
"2017-02-13 13:31:25",712.96
"2017-02-13 13:31:31",723.84
"2017-02-13 13:31:38",736.0
"2017-02-13 13:31:46",746.88
"2017-02-13 13:31:57",757.76
"2017-02-13 13:32:29",768.64
"2017-02-13 13:33:25",779.52
"2017-02-13 13:33:33",790.4
"2017-02-13 13:33:43",801.92
"2017-02-13 13:34:03",789.76
"2017-02-13 13:34:10",777.6
"2017-02-13 13:34:14",766.72
"2017-02-13 13:34:19",755.84
"2017-02-13 13:34:35",766.72
"2017-02-13 13:34:46",754.56
"2017-02-13 13:35:22",742.4
"2017-02-13 13:35:28",730.88
"2017-02-13 13:35:33",718.72
"2017-02-13 13:35:39",707.84
"2017-02-13 13:36:25",696.96
"2017-02-13 13:36:31",685.44
"2017-02-13 13:36:34",674.56
"2017-02-13 13:36:43",663.68
"2017-02-13 13:36:55",652.8
"2017-02-13 13:37:40",641.92
"2017-02-13 13:40:22",652.8
"2017-02-13 13:41:03",641.92
"2017-02-13 13:43:13",630.72
"2017-02-13 13:45:26",619.84
"2017-02-13 13:46:34",632.0
"2017-02-13 13:46:48",469.76
"2017-02-13 13:46:49",452.8
"2017-02-13 13:46:50",430.72
"2017-02-13 13:46:51",411.84
"2017-02-13 13:46:52",384.0
"2017-02-13 13:46:53",350.72
"2017-02-13 13:46:54",324.0
"2017-02-13 13:46:55",296.0
"2017-02-13 13:46:56",266.88
"2017-02-13 13:46:57",236.96
"2017-02-13 13:46:58",208.96
"2017-02-13 13:46:59",181.92
"2017-02-13 13:47:00",154.96
"2017-02-13 13:47:01",128.96
"2017-02-13 13:47:02",106.96
"2017-02-13 13:47:03",86.0
"2017-02-13 13:47:05",66.0
"2017-02-13 13:47:06",51.0
"2017-02-13 13:47:07",38.0
"2017-02-13 13:47:08",26.0
"2017-02-13 13:47:10",11.0
"2017-02-13 14:18:45",100.0
"2017-02-13 14:18:46",277.92
"2017-02-13 14:18:47",484.8
"2017-02-13 14:18:52",472.0
"2017-02-13 14:18:57",484.8
"2017-02-13 14:18:59",496.0
"2017-02-13 14:19:00",506.88
"2017-02-13 14:19:04",545.92
"2017-02-13 14:19:06",580.8
"2017-02-13 14:19:16",561.92
"2017-02-13 14:19:17",576.96
"2017-02-13 14:19:21",588.8
"2017-02-13 14:19:44",557.76
"2017-02-13 14:19:45",574.72
"2017-02-13 14:19:46",552.0
"2017-02-13 14:19:47",573.76
"2017-02-13 14:19:58",505.92
"2017-02-13 14:19:59",368.96
"2017-02-13 14:20:00",340.8
"2017-02-13 14:20:01",324.96
"2017-02-13 14:20:02",308.96
"2017-02-13 14:20:03",281.92
"2017-02-13 14:20:04",256.0
"2017-02-13 14:20:05",228.96
"2017-02-13 14:20:06",200.96
"2017-02-13 14:20:07",174.88
"2017-02-13 14:20:08",150.0
"2017-02-13 14:20:09",126.0
"2017-02-13 14:20:10",102.96
"2017-02-13 14:20:11",82.96
"2017-02-13 14:20:12",66.0
"2017-02-13 14:20:13",50.0
"2017-02-13 14:20:14",38.0
"2017-02-13 14:20:15",27.0
"2017-02-13 14:20:17",9.0
"2017-02-14 09:00:36",12.0
"2017-02-14 13:25:11",150.96
"2017-02-14 13:25:12",549.76
"2017-02-14 13:25:13",592.96
"2017-02-14 13:25:18",581.76
"2017-02-14 13:25:19",570.88
"2017-02-14 13:25:20",548.8
"2017-02-14 13:25:21",584.96
"2017-02-14 13:25:23",560.0
"2017-02-14 13:25:24",608.0
"2017-02-14 13:25:25",624.0
"2017-02-14 13:25:26",636.8
"2017-02-14 13:25:27",652.8
"2017-02-14 13:25:28",664.96
"2017-02-14 13:25:29",678.4
"2017-02-14 13:25:30",702.72
"2017-02-14 13:25:31",722.56
"2017-02-14 13:25:37",711.68
"2017-02-14 13:25:46",723.84
"2017-02-14 13:25:51",710.4
"2017-02-14 13:25:52",680.96
"2017-02-14 13:25:53",702.72
"2017-02-14 13:25:54",683.52
"2017-02-14 13:25:55",706.56
"2017-02-14 13:26:07",690.56
"2017-02-14 13:26:41",679.68
"2017-02-14 13:26:59",668.8
"2017-02-14 13:27:45",656.64
"2017-02-14 13:27:50",644.8
"2017-02-14 13:28:21",633.92
"2017-02-14 13:29:20",644.8
"2017-02-14 13:29:33",656.0
"2017-02-14 13:30:05",644.8
"2017-02-14 13:30:11",633.92
"2017-02-14 13:30:25",622.72
"2017-02-14 13:30:56",611.84
"2017-02-14 13:31:29",600.96
"2017-02-14 13:32:53",589.76
"2017-02-14 13:35:42",578.88
"2017-02-14 13:39:56",589.76
"2017-02-14 13:40:05",600.96
"2017-02-14 13:40:19",587.84
"2017-02-14 13:40:41",576.96
"2017-02-14 13:42:07",587.84
"2017-02-14 13:42:19",576.96
"2017-02-14 13:43:11",565.76
"2017-02-14 13:45:27",554.88
"2017-02-14 13:48:20",565.76
"2017-02-14 13:48:27",576.96
"2017-02-14 13:51:08",505.92
"2017-02-14 13:51:09",387.84
"2017-02-14 13:51:10",363.84
"2017-02-14 13:51:11",342.72
"2017-02-14 13:51:12",321.92
"2017-02-14 13:51:13",296.0
"2017-02-14 13:51:14",268.96
"2017-02-14 13:51:15",241.92
"2017-02-14 13:51:16",212.96
"2017-02-14 13:51:17",190.88
"2017-02-14 13:51:18",168.96
"2017-02-14 13:51:19",146.0
"2017-02-14 13:51:20",124.0
"2017-02-14 13:51:21",102.0
"2017-02-14 13:51:22",82.96
"2017-02-14 13:51:23",66.0
"2017-02-14 13:51:24",51.0
"2017-02-14 13:51:25",39.0
"2017-02-14 13:51:26",28.0
"2017-02-14 13:51:28",10.0
"2017-02-14 14:12:04",82.0
"2017-02-14 14:12:05",216.0
"2017-02-14 14:12:06",433.92
"2017-02-14 14:12:21",458.88
"2017-02-14 14:12:23",488.96
"2017-02-14 14:12:24",505.92
"2017-02-14 14:12:29",517.76
"2017-02-14 14:13:00",504.96
"2017-02-14 14:13:13",363.84
"2017-02-14 14:13:14",325.92
"2017-02-14 14:13:15",306.88
"2017-02-14 14:13:16",288.96
"2017-02-14 14:13:17",274.88
"2017-02-14 14:13:19",246.88
"2017-02-14 14:13:20",224.96
"2017-02-14 14:13:21",201.92
"2017-02-14 14:13:23",178.88
"2017-02-14 14:13:24",156.96
"2017-02-14 14:13:25",134.96
"2017-02-14 14:13:26",112.96
"2017-02-14 14:13:27",92.96
"2017-02-14 14:13:28",75.0
"2017-02-14 14:13:29",59.0
"2017-02-14 14:13:30",45.0
"2017-02-14 14:13:31",34.0
"2017-02-14 14:13:33",17.0
"2017-02-14 14:13:35",6.0
"2017-02-15 08:47:37",17.0
"2017-02-15 09:08:50",28.0
"2017-02-15 10:01:54",39.0
"2017-02-15 10:09:11",28.0
"2017-02-15 10:10:05",39.0
"2017-02-15 10:14:18",28.0
"2017-02-15 10:15:36",39.0
"2017-02-15 10:19:28",28.0
"2017-02-15 10:19:50",39.0
"2017-02-15 10:43:54",28.0
"2017-02-15 10:44:22",39.0
"2017-02-15 10:46:16",28.0
"2017-02-15 10:46:32",17.0
"2017-02-15 10:47:33",28.0
"2017-02-15 10:47:40",39.0
"2017-02-15 10:49:09",27.0
"2017-02-15 10:49:19",38.0
"2017-02-15 10:50:46",27.0
"2017-02-15 10:51:00",16.0
"2017-02-15 10:52:30",27.0
"2017-02-15 10:52:47",39.0
"2017-02-15 10:54:16",27.0
"2017-02-15 10:55:13",38.0
"2017-02-15 10:57:43",27.0
"2017-02-15 10:58:00",38.0
"2017-02-15 10:58:17",27.0
"2017-02-15 10:59:06",38.0
"2017-02-15 11:47:40",27.0
"2017-02-15 12:24:27",16.0
"2017-02-15 12:59:42",46.0
"2017-02-15 12:59:43",221.92
"2017-02-15 12:59:44",483.84
"2017-02-15 12:59:45",588.8
"2017-02-15 12:59:48",568.96
"2017-02-15 12:59:49",547.84
"2017-02-15 12:59:50",564.8
"2017-02-15 12:59:51",545.92
"2017-02-15 12:59:52",570.88
"2017-02-15 12:59:55",588.8
"2017-02-15 12:59:56",600.96
"2017-02-15 12:59:58",617.92
"2017-02-15 12:59:59",634.88
"2017-02-15 13:00:00",651.84
"2017-02-15 13:00:01",670.72
"2017-02-15 13:00:02",694.4
"2017-02-15 13:00:03",717.44
"2017-02-15 13:00:29",679.68
"2017-02-15 13:00:30",699.52
"2017-02-15 13:00:31",649.92
"2017-02-15 13:00:32",704.0
"2017-02-15 13:00:47",688.0
"2017-02-15 13:04:41",676.48
"2017-02-15 13:10:41",664.96
"2017-02-15 13:16:31",675.84
"2017-02-15 13:23:53",686.72
"2017-02-15 13:24:22",697.6
"2017-02-15 13:25:33",710.4
"2017-02-15 13:25:41",557.76
"2017-02-15 13:25:42",544.0
"2017-02-15 13:25:43",518.72
"2017-02-15 13:25:44",481.92
"2017-02-15 13:25:45",451.84
"2017-02-15 13:25:46",422.72
"2017-02-15 13:25:47",390.72
"2017-02-15 13:25:48",357.76
"2017-02-15 13:25:49",324.0
"2017-02-15 13:25:50",289.92
"2017-02-15 13:25:51",256.96
"2017-02-15 13:25:52",224.96
"2017-02-15 13:25:53",192.96
"2017-02-15 13:25:54",162.96
"2017-02-15 13:25:55",136.96
"2017-02-15 13:25:56",112.0
"2017-02-15 13:25:57",88.96
"2017-02-15 13:25:58",70.0
"2017-02-15 13:25:59",53.0
"2017-02-15 13:26:00",38.0
"2017-02-15 13:26:01",24.0
"2017-02-15 13:34:06",13.0
"2017-02-15 13:46:16",154.96
"2017-02-15 13:46:17",352.0
"2017-02-15 13:46:18",494.72
"2017-02-15 13:46:23",483.84
"2017-02-15 13:46:28",500.8
"2017-02-15 13:46:31",520.96
"2017-02-15 13:46:32",532.8
"2017-02-15 13:46:34",552.96
"2017-02-15 13:46:37",584.0
"2017-02-15 13:46:38",553.92
"2017-02-15 13:46:39",588.8
"2017-02-15 13:47:05",565.76
"2017-02-15 13:47:07",581.76
"2017-02-15 13:47:15",445.76
"2017-02-15 13:47:16",370.88
"2017-02-15 13:47:17",352.96
"2017-02-15 13:47:18",341.76
"2017-02-15 13:47:19",325.92
"2017-02-15 13:47:20",304.96
"2017-02-15 13:47:21",278.88
"2017-02-15 13:47:22",252.0
"2017-02-15 13:47:23",224.0
"2017-02-15 13:47:24",196.96
"2017-02-15 13:47:25",172.0
"2017-02-15 13:47:26",146.0
"2017-02-15 13:47:27",120.0
"2017-02-15 13:47:28",98.0
"2017-02-15 13:47:29",78.0
"2017-02-15 13:47:30",59.0
"2017-02-15 13:47:31",44.0
"2017-02-15 13:47:32",31.0
"2017-02-15 13:47:34",12.0
"2017-02-15 16:01:03",1.0
"2017-02-16 08:44:32",12.0
"2017-02-16 08:49:02",23.0
"2017-02-16 09:24:15",34.0
"2017-02-16 12:52:41",23.0
"2017-02-16 12:55:23",232.0
"2017-02-16 12:55:24",616.96
"2017-02-16 12:55:28",602.88
"2017-02-16 12:55:31",588.8
"2017-02-16 12:55:32",604.8
"2017-02-16 12:55:34",627.84
"2017-02-16 12:55:36",651.84
"2017-02-16 12:55:38",672.0
"2017-02-16 12:55:39",688.0
"2017-02-16 12:55:40",702.72
"2017-02-16 12:55:41",716.8
"2017-02-16 12:55:42",734.72
"2017-02-16 12:55:47",651.84
"2017-02-16 12:55:48",683.52
"2017-02-16 12:55:49",739.84
"2017-02-16 12:56:02",728.96
"2017-02-16 12:56:04",692.48
"2017-02-16 12:56:05",726.4
"2017-02-16 12:57:06",713.6
"2017-02-16 13:00:25",701.44
"2017-02-16 13:02:32",690.56
"2017-02-16 13:04:22",679.68
"2017-02-16 13:06:16",668.8
"2017-02-16 13:08:22",657.92
"2017-02-16 13:10:13",646.72
"2017-02-16 13:12:04",635.84
"2017-02-16 13:13:16",621.76
"2017-02-16 13:15:44",610.88
"2017-02-16 13:17:26",600.0
"2017-02-16 13:19:19",588.8
"2017-02-16 13:21:05",577.92
"2017-02-16 13:22:24",566.72
"2017-02-16 13:25:13",555.84
"2017-02-16 13:27:41",540.8
"2017-02-16 13:28:29",446.72
"2017-02-16 13:28:30",361.92
"2017-02-16 13:28:31",350.72
"2017-02-16 13:28:32",336.96
"2017-02-16 13:28:33",314.88
"2017-02-16 13:28:34",296.0
"2017-02-16 13:28:35",276.0
"2017-02-16 13:28:36",256.0
"2017-02-16 13:28:37",233.92
"2017-02-16 13:28:38",210.88
"2017-02-16 13:28:39",188.96
"2017-02-16 13:28:40",168.96
"2017-02-16 13:28:41",148.0
"2017-02-16 13:28:42",128.0
"2017-02-16 13:28:43",106.96
"2017-02-16 13:28:44",86.96
"2017-02-16 13:28:45",68.0
"2017-02-16 13:28:46",52.0
"2017-02-16 13:28:47",38.0
"2017-02-16 13:28:48",25.0
"2017-02-16 13:29:34",14.0
"2017-02-16 13:49:47",173.92
"2017-02-16 13:49:48",362.88
"2017-02-16 13:49:49",422.72
"2017-02-16 13:49:57",433.92
"2017-02-16 13:49:59",444.8
"2017-02-16 13:50:01",456.0
"2017-02-16 13:50:03",472.0
"2017-02-16 13:50:05",488.0
"2017-02-16 13:50:07",504.96
"2017-02-16 13:50:15",488.0
"2017-02-16 13:50:16",502.72
"2017-02-16 13:50:42",489.92
"2017-02-16 13:50:43",504.0
"2017-02-16 13:50:44",490.88
"2017-02-16 13:50:46",504.0
"2017-02-16 13:50:54",357.76
"2017-02-16 13:50:55",301.92
"2017-02-16 13:50:57",288.96
"2017-02-16 13:50:58",276.0
"2017-02-16 13:50:59",256.96
"2017-02-16 13:51:00",236.0
"2017-02-16 13:51:01",213.92
"2017-02-16 13:51:02",190.88
"2017-02-16 13:51:03",168.96
"2017-02-16 13:51:04",146.0
"2017-02-16 13:51:05",124.0
"2017-02-16 13:51:06",102.96
"2017-02-16 13:51:07",84.96
"2017-02-16 13:51:08",68.0
"2017-02-16 13:51:09",51.0
"2017-02-16 13:51:10",37.0
"2017-02-16 13:51:11",26.0
"2017-02-16 13:51:13",9.0
"2017-02-17 08:44:43",20.0
"2017-02-17 09:17:36",31.0
"2017-02-17 11:05:16",42.0
"2017-02-17 11:06:34",31.0
"2017-02-17 11:08:04",20.0
"2017-02-17 11:09:25",31.0
"2017-02-17 11:10:48",42.0
"2017-02-17 11:11:47",31.0
"2017-02-17 11:12:29",20.0
"2017-02-17 11:16:55",31.0
"2017-02-17 11:22:06",20.0
"2017-02-17 11:25:55",31.0
"2017-02-17 11:26:33",20.0
"2017-02-17 11:28:02",31.0
"2017-02-17 11:30:13",20.0
"2017-02-17 11:33:33",31.0
"2017-02-17 11:34:36",20.0
"2017-02-17 11:36:28",31.0
"2017-02-17 12:26:41",160.0
"2017-02-17 12:26:42",434.88
"2017-02-17 12:26:43",789.76
"2017-02-17 12:26:44",776.96
"2017-02-17 12:26:45",764.8
"2017-02-17 12:26:50",750.72
"2017-02-17 12:26:52",734.72
"2017-02-17 12:26:53",749.44
"2017-02-17 12:26:56",764.8
"2017-02-17 12:26:58",786.56
"2017-02-17 12:26:59",804.48
"2017-02-17 12:27:00",822.4
"2017-02-17 12:27:01",842.88
"2017-02-17 12:27:02",856.96
"2017-02-17 12:27:04",845.44
"2017-02-17 12:27:11",856.96
"2017-02-17 12:27:20",836.48
"2017-02-17 12:27:22",811.52
"2017-02-17 12:27:24",841.6
"2017-02-17 12:27:25",856.96
"2017-02-17 12:27:42",842.88
"2017-02-17 12:27:44",853.76
"2017-02-17 12:27:46",804.48
"2017-02-17 12:27:47",840.96
"2017-02-17 12:28:05",827.52
"2017-02-17 12:28:06",845.44
"2017-02-17 12:28:33",704.64
"2017-02-17 12:28:34",675.84
"2017-02-17 12:28:35",645.76
"2017-02-17 12:28:36",621.76
"2017-02-17 12:28:37",603.84
"2017-02-17 12:28:38",581.76
"2017-02-17 12:28:39",553.92
"2017-02-17 12:28:40",518.72
"2017-02-17 12:28:41",481.92
"2017-02-17 12:28:42",442.88
"2017-02-17 12:28:43",402.88
"2017-02-17 12:28:44",360.0
"2017-02-17 12:28:45",313.92
"2017-02-17 12:28:46",268.96
"2017-02-17 12:28:47",230.88
"2017-02-17 12:28:48",186.88
"2017-02-17 12:28:49",140.96
"2017-02-17 12:28:50",106.96
"2017-02-17 12:28:51",86.96
"2017-02-17 12:28:52",68.0
"2017-02-17 12:28:53",43.0
"2017-02-17 12:28:54",29.0
"2017-02-17 12:39:57",17.0
"2017-02-17 13:44:39",6.0
"2017-02-20 09:35:45",39.0
"2017-02-20 12:25:24",28.0
"2017-02-20 12:50:34",142.0
"2017-02-20 12:50:35",588.8
"2017-02-20 12:50:36",641.92
"2017-02-20 12:50:37",652.8
"2017-02-20 12:50:38",636.8
"2017-02-20 12:50:39",620.8
"2017-02-20 12:50:43",594.88
"2017-02-20 12:50:44",638.72
"2017-02-20 12:50:46",660.48
"2017-02-20 12:50:47",677.76
"2017-02-20 12:50:49",694.4
"2017-02-20 12:50:50",707.84
"2017-02-20 12:50:52",724.48
"2017-02-20 12:50:53",746.88
"2017-02-20 12:50:54",762.88
"2017-02-20 12:51:19",716.8
"2017-02-20 12:51:20",738.56
"2017-02-20 12:51:22",752.64
"2017-02-20 12:51:34",737.92
"2017-02-20 12:56:40",726.4
"2017-02-20 12:58:36",715.52
"2017-02-20 13:00:48",704.64
"2017-02-20 13:02:04",693.76
"2017-02-20 13:04:18",682.88
"2017-02-20 13:06:09",666.88
"2017-02-20 13:06:10",678.4
"2017-02-20 13:07:53",667.52
"2017-02-20 13:09:31",656.64
"2017-02-20 13:11:34",645.76
"2017-02-20 13:13:28",634.88
"2017-02-20 13:14:59",624.0
"2017-02-20 13:15:23",608.96
"2017-02-20 13:15:24",620.8
"2017-02-20 13:16:56",609.92
"2017-02-20 13:18:51",598.72
"2017-02-20 13:20:28",585.92
"2017-02-20 13:22:36",574.72
"2017-02-20 13:24:32",563.84
"2017-02-20 13:26:00",452.8
"2017-02-20 13:26:01",388.8
"2017-02-20 13:26:03",366.72
"2017-02-20 13:26:04",348.8
"2017-02-20 13:26:05",332.8
"2017-02-20 13:26:06",313.92
"2017-02-20 13:26:07",293.92
"2017-02-20 13:26:08",272.0
"2017-02-20 13:26:09",249.92
"2017-02-20 13:26:10",226.88
"2017-02-20 13:26:11",204.96
"2017-02-20 13:26:12",181.92
"2017-02-20 13:26:13",158.96
"2017-02-20 13:26:14",136.0
"2017-02-20 13:26:15",112.0
"2017-02-20 13:26:16",90.0
"2017-02-20 13:26:17",71.0
"2017-02-20 13:26:18",54.0
"2017-02-20 13:26:19",39.0
"2017-02-20 13:26:20",24.0
"2017-02-20 13:32:03",13.0
"2017-02-20 13:46:17",52.0
"2017-02-20 13:46:18",160.0
"2017-02-20 13:46:19",304.96
"2017-02-20 13:46:25",318.88
"2017-02-20 13:46:28",330.88
"2017-02-20 13:46:30",341.76
"2017-02-20 13:46:34",368.96
"2017-02-20 13:46:35",381.76
"2017-02-20 13:46:36",393.92
"2017-02-20 13:46:38",408.0
"2017-02-20 13:47:16",393.92
"2017-02-20 13:47:24",353.92
"2017-02-20 13:47:25",324.0
"2017-02-20 13:47:29",301.92
"2017-02-20 13:47:30",284.0
"2017-02-20 13:47:31",262.88
"2017-02-20 13:47:32",241.92
"2017-02-20 13:47:33",220.0
"2017-02-20 13:47:34",196.0
"2017-02-20 13:47:35",172.0
"2017-02-20 13:47:36",150.0
"2017-02-20 13:47:37",126.96
"2017-02-20 13:47:38",104.96
"2017-02-20 13:47:39",84.96
"2017-02-20 13:47:40",67.0
"2017-02-20 13:47:41",50.0
"2017-02-20 13:47:42",35.0
"2017-02-20 13:47:43",23.0
"2017-02-20 13:47:45",6.0
"2017-02-21 08:49:59",17.0
"2017-02-21 08:53:22",6.0
"2017-02-21 08:54:32",17.0
"2017-02-21 08:54:48",28.0
"2017-02-21 09:10:24",17.0
"2017-02-21 09:22:55",28.0
"2017-02-21 09:24:28",17.0
"2017-02-21 09:40:06",6.0
"2017-02-21 10:26:45",17.0
"2017-02-21 10:28:49",28.0
"2017-02-21 10:28:51",39.0
"2017-02-21 10:31:38",50.0
"2017-02-21 10:37:06",39.0
"2017-02-21 10:38:45",28.0
"2017-02-21 10:41:00",39.0
"2017-02-21 10:41:39",28.0
"2017-02-21 10:42:26",39.0
"2017-02-21 10:43:31",50.0
"2017-02-21 10:44:20",39.0
"2017-02-21 10:44:39",27.0
"2017-02-21 10:46:04",16.0
"2017-02-21 10:59:38",27.0
"2017-02-21 11:00:12",38.0
"2017-02-21 11:05:05",49.0
"2017-02-21 11:05:35",38.0
"2017-02-21 11:06:08",49.0
"2017-02-21 11:06:24",37.0
"2017-02-21 11:06:29",26.0
"2017-02-21 11:06:39",39.0
"2017-02-21 11:08:09",50.0
"2017-02-21 11:08:37",39.0
"2017-02-21 11:08:50",28.0
"2017-02-21 11:09:05",40.0
"2017-02-21 11:25:40",29.0
"2017-02-21 11:26:04",40.0
"2017-02-21 11:27:33",29.0
"2017-02-21 11:27:39",42.0
"2017-02-21 11:30:02",30.0
"2017-02-21 11:30:12",19.0
"2017-02-21 11:30:45",30.0
"2017-02-21 11:32:37",18.0
"2017-02-21 11:36:47",30.0
"2017-02-21 11:37:00",19.0
"2017-02-21 11:39:19",30.0
"2017-02-21 11:40:29",41.0
"2017-02-21 11:40:42",30.0
"2017-02-21 11:41:04",19.0
"2017-02-21 11:41:22",30.0
"2017-02-21 11:42:24",19.0
"2017-02-21 11:47:52",30.0
"2017-02-21 11:48:44",19.0
"2017-02-21 11:49:23",30.0
"2017-02-21 11:50:01",19.0
"2017-02-21 11:50:16",30.0
"2017-02-21 11:50:34",41.0
"2017-02-21 11:55:42",30.0
"2017-02-21 11:57:23",41.0
"2017-02-21 11:57:35",29.0
"2017-02-21 11:57:46",40.0
"2017-02-21 11:59:28",29.0
"2017-02-21 11:59:34",40.0
"2017-02-21 11:59:54",29.0
"2017-02-21 12:00:49",40.0
"2017-02-21 12:01:50",28.0
"2017-02-21 12:03:08",39.0
"2017-02-21 12:03:46",28.0
"2017-02-21 12:06:54",17.0
"2017-02-21 12:09:39",28.0
"2017-02-21 12:10:21",17.0
"2017-02-21 12:16:10",28.0
"2017-02-21 12:20:05",17.0
"2017-02-21 12:20:12",29.0
"2017-02-21 12:23:06",18.0
"2017-02-21 12:23:54",29.0
"2017-02-21 13:19:07",18.0
"2017-02-21 13:26:35",7.0
"2017-02-21 13:38:40",18.0
"2017-02-21 13:54:39",7.0
"2017-02-22 08:36:04",18.0
"2017-02-22 08:44:16",29.0
"2017-02-22 08:50:43",18.0
"2017-02-22 08:51:20",29.0
"2017-02-22 08:54:15",18.0
"2017-02-22 08:58:29",29.0
"2017-02-22 09:10:21",18.0
"2017-02-22 09:11:45",7.0
"2017-02-22 09:13:11",18.0
"2017-02-22 09:13:21",29.0
"2017-02-22 09:19:43",40.0
"2017-02-22 09:42:31",29.0
"2017-02-22 09:42:59",40.0
"2017-02-22 11:57:36",29.0
"2017-02-22 13:03:33",49.0
"2017-02-22 13:03:34",98.96
"2017-02-22 13:03:38",110.0
"2017-02-22 13:03:39",228.96
"2017-02-22 13:03:40",469.76
"2017-02-22 13:03:41",602.88
"2017-02-22 13:03:44",592.0
"2017-02-22 13:03:46",579.84
"2017-02-22 13:03:52",616.96
"2017-02-22 13:03:53",629.76
"2017-02-22 13:03:54",646.72
"2017-02-22 13:03:55",661.76
"2017-02-22 13:03:56",673.92
"2017-02-22 13:03:57",690.56
"2017-02-22 13:03:58",708.48
"2017-02-22 13:03:59",722.56
"2017-02-22 13:04:25",711.68
"2017-02-22 13:04:47",700.8
"2017-02-22 13:06:54",689.92
"2017-02-22 13:09:02",678.4
"2017-02-22 13:09:45",667.52
"2017-02-22 13:10:22",656.64
"2017-02-22 13:11:11",645.76
"2017-02-22 13:11:28",634.88
"2017-02-22 13:11:41",645.76
"2017-02-22 13:12:58",634.88
"2017-02-22 13:13:38",624.0
"2017-02-22 13:14:19",612.8
"2017-02-22 13:16:00",601.92
"2017-02-22 13:21:33",589.76
"2017-02-22 13:22:05",562.88
"2017-02-22 13:22:06",500.8
"2017-02-22 13:22:07",414.72
"2017-02-22 13:22:08",401.92
"2017-02-22 13:22:09",384.96
"2017-02-22 13:22:10",360.0
"2017-02-22 13:22:11",336.96
"2017-02-22 13:22:12",313.92
"2017-02-22 13:22:13",290.88
"2017-02-22 13:22:14",265.92
"2017-02-22 13:22:15",240.96
"2017-02-22 13:22:16",217.92
"2017-02-22 13:22:17",196.0
"2017-02-22 13:22:18",172.0
"2017-02-22 13:22:19",148.96
"2017-02-22 13:22:20",124.96
"2017-02-22 13:22:21",102.96
"2017-02-22 13:22:22",81.0
"2017-02-22 13:22:23",63.0
"2017-02-22 13:22:24",46.0
"2017-02-22 13:22:25",30.0
"2017-02-22 13:22:27",18.0
"2017-02-22 13:42:14",7.0
"2017-02-22 14:28:23",24.0
"2017-02-22 14:28:24",122.96
"2017-02-22 14:28:25",372.8
"2017-02-22 14:28:26",436.8
"2017-02-22 14:28:33",451.84
"2017-02-22 14:28:36",465.92
"2017-02-22 14:28:38",478.72
"2017-02-22 14:28:40",497.92
"2017-02-22 14:28:42",513.92
"2017-02-22 14:28:44",529.92
"2017-02-22 14:28:46",513.92
"2017-02-22 14:28:49",536.0
"2017-02-22 14:29:17",520.96
"2017-02-22 14:29:20",506.88
"2017-02-22 14:29:21",518.72
"2017-02-22 14:29:22",529.92
"2017-02-22 14:29:29",460.8
"2017-02-22 14:29:30",336.0
"2017-02-22 14:29:33",316.0
"2017-02-22 14:29:35",286.88
"2017-02-22 14:29:36",264.96
"2017-02-22 14:29:37",242.88
"2017-02-22 14:29:38",218.88
"2017-02-22 14:29:39",192.96
"2017-02-22 14:29:40",168.96
"2017-02-22 14:29:41",148.0
"2017-02-22 14:29:42",126.0
"2017-02-22 14:29:43",104.96
"2017-02-22 14:29:44",84.96
"2017-02-22 14:29:45",66.0
"2017-02-22 14:29:46",50.0
"2017-02-22 14:29:48",36.0
"2017-02-22 14:29:49",24.0
"2017-02-22 14:29:50",13.0
"2017-02-22 15:23:00",2.0
"2017-02-23 08:32:17",13.0
"2017-02-23 08:33:11",24.0
"2017-02-23 08:48:03",35.0
"2017-02-23 09:27:22",46.0
"2017-02-23 10:10:00",35.0
"2017-02-23 10:10:36",46.0
"2017-02-23 10:48:55",35.0
"2017-02-23 10:50:10",46.0
"2017-02-23 10:56:09",35.0
"2017-02-23 11:05:03",24.0
"2017-02-23 11:05:57",35.0
"2017-02-23 11:06:40",46.0
"2017-02-23 11:09:56",35.0
"2017-02-23 11:14:49",24.0
"2017-02-23 11:16:32",35.0
"2017-02-23 11:19:00",24.0
"2017-02-23 11:25:30",35.0
"2017-02-23 11:28:35",24.0
"2017-02-23 11:28:50",35.0
"2017-02-23 11:29:10",24.0
"2017-02-23 11:30:04",35.0
"2017-02-23 11:34:53",24.0
"2017-02-23 11:38:11",35.0
"2017-02-23 11:43:10",24.0
"2017-02-23 11:45:14",35.0
"2017-02-23 11:48:40",24.0
"2017-02-23 11:56:16",13.0
"2017-02-23 12:39:47",24.0
"2017-02-23 12:51:41",306.88
"2017-02-23 12:51:42",749.44
"2017-02-23 12:51:43",761.6
"2017-02-23 12:51:46",739.84
"2017-02-23 12:51:51",757.76
"2017-02-23 12:51:53",770.56
"2017-02-23 12:51:54",736.0
"2017-02-23 12:51:55",784.64
"2017-02-23 12:51:56",798.72
"2017-02-23 12:51:58",848.64
"2017-02-23 12:52:00",871.68
"2017-02-23 12:52:01",898.56
"2017-02-23 12:52:02",914.56
"2017-02-23 12:52:09",925.44
"2017-02-23 12:52:11",936.96
"2017-02-23 12:52:14",948.48
"2017-02-23 12:52:21",935.68
"2017-02-23 12:52:23",913.92
"2017-02-23 12:52:25",902.4
"2017-02-23 12:52:28",888.96
"2017-02-23 12:52:29",857.6
"2017-02-23 12:52:30",837.76
"2017-02-23 12:52:33",818.56
"2017-02-23 12:52:35",801.92
"2017-02-23 12:52:38",790.4
"2017-02-23 12:52:44",768.64
"2017-02-23 12:53:21",757.76
"2017-02-23 12:53:25",745.6
"2017-02-23 12:53:44",757.76
"2017-02-23 12:53:53",768.64
"2017-02-23 12:54:10",781.44
"2017-02-23 12:54:12",802.56
"2017-02-23 12:54:14",819.84
"2017-02-23 12:54:23",835.84
"2017-02-23 12:54:27",824.96
"2017-02-23 12:54:30",813.44
"2017-02-23 12:54:33",798.72
"2017-02-23 12:54:35",785.92
"2017-02-23 12:54:38",771.84
"2017-02-23 12:54:40",760.96
"2017-02-23 12:54:54",749.44
"2017-02-23 12:54:59",736.64
"2017-02-23 12:55:19",748.8
"2017-02-23 12:55:25",759.68
"2017-02-23 12:55:31",776.96
"2017-02-23 12:55:41",789.76
"2017-02-23 12:55:44",800.64
"2017-02-23 12:55:55",782.72
"2017-02-23 12:55:57",765.44
"2017-02-23 12:56:00",753.92
"2017-02-23 12:56:05",742.4
"2017-02-23 12:56:10",730.88
"2017-02-23 12:56:17",718.72
"2017-02-23 12:56:30",707.84
"2017-02-23 12:56:54",720.0
"2017-02-23 12:57:24",708.48
"2017-02-23 12:58:08",697.6
"2017-02-23 12:59:34",708.48
"2017-02-23 13:00:02",697.6
"2017-02-23 13:00:15",686.72
"2017-02-23 13:02:10",675.84
"2017-02-23 13:02:39",686.72
"2017-02-23 13:04:28",674.56
"2017-02-23 13:05:10",685.44
"2017-02-23 13:06:09",674.56
"2017-02-23 13:06:42",685.44
"2017-02-23 13:07:42",697.6
"2017-02-23 13:07:55",708.48
"2017-02-23 13:08:02",720.64
"2017-02-23 13:08:08",731.52
"2017-02-23 13:08:15",744.96
"2017-02-23 13:08:19",756.48
"2017-02-23 13:08:35",769.92
"2017-02-23 13:08:37",790.4
"2017-02-23 13:08:38",802.56
"2017-02-23 13:08:39",813.44
"2017-02-23 13:08:41",830.72
"2017-02-23 13:08:44",842.88
"2017-02-23 13:08:55",830.72
"2017-02-23 13:09:01",841.6
"2017-02-23 13:09:03",853.76
"2017-02-23 13:09:10",840.96
"2017-02-23 13:09:13",826.88
"2017-02-23 13:09:15",813.44
"2017-02-23 13:09:17",795.52
"2017-02-23 13:09:20",784.64
"2017-02-23 13:09:24",766.72
"2017-02-23 13:09:26",754.56
"2017-02-23 13:09:34",742.4
"2017-02-23 13:09:37",729.6
"2017-02-23 13:09:39",716.8
"2017-02-23 13:09:51",730.88
"2017-02-23 13:09:53",741.76
"2017-02-23 13:09:56",754.56
"2017-02-23 13:10:00",739.84
"2017-02-23 13:10:02",720.64
"2017-02-23 13:10:04",704.64
"2017-02-23 13:10:06",693.76
"2017-02-23 13:10:10",682.88
"2017-02-23 13:11:04",672.0
"2017-02-23 13:11:21",683.52
"2017-02-23 13:11:29",694.4
"2017-02-23 13:11:51",707.84
"2017-02-23 13:11:54",720.0
"2017-02-23 13:11:57",736.64
"2017-02-23 13:11:59",750.72
"2017-02-23 13:12:02",765.44
"2017-02-23 13:12:04",777.6
"2017-02-23 13:12:06",795.52
"2017-02-23 13:12:09",813.44
"2017-02-23 13:12:11",824.96
"2017-02-23 13:12:17",812.8
"2017-02-23 13:12:20",798.72
"2017-02-23 13:12:22",787.84
"2017-02-23 13:12:27",776.96
"2017-02-23 13:12:31",765.44
"2017-02-23 13:12:34",752.64
"2017-02-23 13:12:37",739.84
"2017-02-23 13:12:47",727.68
"2017-02-23 13:12:52",714.88
"2017-02-23 13:12:55",702.72
"2017-02-23 13:13:00",689.92
"2017-02-23 13:13:07",678.4
"2017-02-23 13:13:14",667.52
"2017-02-23 13:15:05",679.68
"2017-02-23 13:15:12",667.52
"2017-02-23 13:15:17",656.0
"2017-02-23 13:15:40",643.84
"2017-02-23 13:15:56",656.64
"2017-02-23 13:16:04",624.0
"2017-02-23 13:16:05",483.84
"2017-02-23 13:16:06",461.76
"2017-02-23 13:16:07",437.76
"2017-02-23 13:16:08",402.88
"2017-02-23 13:16:09",371.84
"2017-02-23 13:16:10",342.72
"2017-02-23 13:16:11",312.96
"2017-02-23 13:16:12",281.92
"2017-02-23 13:16:13",252.0
"2017-02-23 13:16:14",221.92
"2017-02-23 13:16:15",192.96
"2017-02-23 13:16:16",165.92
"2017-02-23 13:16:17",140.0
"2017-02-23 13:16:18",116.0
"2017-02-23 13:16:19",92.96
"2017-02-23 13:16:20",74.0
"2017-02-23 13:16:21",57.0
"2017-02-23 13:16:22",43.0
"2017-02-23 13:16:23",32.0
"2017-02-23 13:16:24",21.0
"2017-02-23 13:16:26",10.0
"2017-02-23 13:38:13",82.96
"2017-02-23 13:38:14",354.88
"2017-02-23 13:38:15",563.84
"2017-02-23 13:38:17",552.0
"2017-02-23 13:38:20",537.92
"2017-02-23 13:38:23",521.92
"2017-02-23 13:38:24",536.0
"2017-02-23 13:38:26",558.72
"2017-02-23 13:38:27",574.72
"2017-02-23 13:38:28",590.72
"2017-02-23 13:38:29",602.88
"2017-02-23 13:38:30",616.0
"2017-02-23 13:38:31",632.96
"2017-02-23 13:38:32",651.84
"2017-02-23 13:38:33",672.64
"2017-02-23 13:38:40",683.52
"2017-02-23 13:39:02",642.88
"2017-02-23 13:39:04",656.64
"2017-02-23 13:39:05",669.44
"2017-02-23 13:39:26",560.0
"2017-02-23 13:39:27",472.96
"2017-02-23 13:39:28",452.8
"2017-02-23 13:39:29",430.72
"2017-02-23 13:39:30",416.96
"2017-02-23 13:39:31",388.8
"2017-02-23 13:39:32",354.88
"2017-02-23 13:39:33",321.92
"2017-02-23 13:39:34",288.96
"2017-02-23 13:39:35",254.88
"2017-02-23 13:39:36",220.96
"2017-02-23 13:39:37",188.0
"2017-02-23 13:39:38",156.96
"2017-02-23 13:39:39",128.96
"2017-02-23 13:39:40",102.96
"2017-02-23 13:39:41",80.0
"2017-02-23 13:39:42",61.0
"2017-02-23 13:39:43",45.0
"2017-02-23 13:39:44",32.0
"2017-02-23 13:39:46",20.0
"2017-02-23 13:53:44",9.0
"2017-02-24 10:45:43",20.0
"2017-02-24 10:46:10",9.0
"2017-02-24 10:46:39",20.0
"2017-02-24 10:47:27",9.0
"2017-02-24 12:33:02",48.0
"2017-02-24 12:33:03",253.92
"2017-02-24 12:33:04",365.76
"2017-02-24 12:33:16",377.92
"2017-02-24 12:33:18",390.72
"2017-02-24 12:33:20",406.72
"2017-02-24 12:33:22",426.88
"2017-02-24 12:33:36",437.76
"2017-02-24 12:33:47",425.92
"2017-02-24 12:33:59",414.72
"2017-02-24 12:34:04",429.76
"2017-02-24 12:34:08",416.96
"2017-02-24 12:34:12",427.84
"2017-02-24 12:34:16",413.76
"2017-02-24 12:34:17",429.76
"2017-02-24 12:34:27",412.8
"2017-02-24 12:34:28",429.76
"2017-02-24 12:34:45",417.92
"2017-02-24 12:34:48",252.96
"2017-02-24 12:34:49",225.92
"2017-02-24 12:34:51",205.92
"2017-02-24 12:34:52",193.92
"2017-02-24 12:34:53",177.92
"2017-02-24 12:34:54",162.0
"2017-02-24 12:34:55",146.96
"2017-02-24 12:34:56",130.96
"2017-02-24 12:34:57",116.0
"2017-02-24 12:34:58",100.96
"2017-02-24 12:34:59",86.0
"2017-02-24 12:35:00",72.0
"2017-02-24 12:35:01",60.0
"2017-02-24 12:35:02",49.0
"2017-02-24 12:35:03",38.0
"2017-02-24 12:35:05",22.0
"2017-02-24 12:35:07",9.0
